…
high.performers %>%
  filter(
    sd_guesses < 1.5,
    )
```

```
## # A tibble: 28 x 4
##     user no_games mean_guesses sd_guesses
##    <int>    <int>        <dbl>      <dbl>
##  1 14063       15         5.67       1.45
##  2  3896       45         5.69       1.36
##  3   297       13         6          1.08
##  4 12377       12         6          1.28
##  5  2409       10         6.1        1.45
##  6  9248       11         6.18       1.40
##  7 14410       11         6.18       1.17
##  8  1813       10         6.3        1.49
##  9  8020       10         6.3        1.16
## 10  4366       13         6.38       1.19
## # … with 18 more rows
```
